type=sensor;protocol=fineoffset;model=temperaturehumidity;id=199;temperature=2.5;humidity=72;time=2021-12-20;00:57:58;age=3;type=sensor;protocol=fineoffset;model=temperaturehumidity;id=135;temperature=-0.3;humidity=78;time=2021-12-20;00:57:16;age=45;type=sensor;protocol=fineoffset;model=temperature;id=212;temperature=20.6;time=2021-12-20;00:57:16;age=45;type=sensor;protocol=fineoffset;model=temperaturehumidity;id=167;temperature=21.7;humidity=40;time=2021-12-20;00:57:36;age=25
type=sensor;protocol=fineoffset;model=temperaturehumidity;id=199;temperature=2.3;humidity=70;time=2021-12-20;01:57:58;age=4;type=sensor;protocol=fineoffset;model=temperaturehumidity;id=135;temperature=-0.4;humidity=75;time=2021-12-20;01:56:28;age=94;type=sensor;protocol=fineoffset;model=temperature;id=212;temperature=20.6;time=2021-12-20;01:57:16;age=46;type=sensor;protocol=fineoffset;model=temperaturehumidity;id=167;temperature=21.7;humidity=40;time=2021-12-20;01:57:36;age=26
type=sensor;protocol=fineoffset;model=temperaturehumidity;id=199;temperature=1.9;humidity=67;time=2021-12-20;02:57:58;age=3;type=sensor;protocol=fineoffset;model=temperaturehumidity;id=135;temperature=-0.9;humidity=70;time=2021-12-20;02:57:16;age=45;type=sensor;protocol=fineoffset;model=temperature;id=212;temperature=20.6;time=2021-12-20;02:57:16;age=45;type=sensor;protocol=fineoffset;model=temperaturehumidity;id=167;temperature=21.6;humidity=40;time=2021-12-20;02:57:36;age=25
type=sensor;protocol=fineoffset;model=temperaturehumidity;id=199;temperature=1.8;humidity=66;time=2021-12-20;03:57:58;age=3;type=sensor;protocol=fineoffset;model=temperaturehumidity;id=135;temperature=-1.0;humidity=68;time=2021-12-20;03:57:16;age=45;type=sensor;protocol=fineoffset;model=temperature;id=212;temperature=20.6;time=2021-12-20;03:57:16;age=45;type=sensor;protocol=fineoffset;model=temperaturehumidity;id=167;temperature=21.5;humidity=39;time=2021-12-20;03:57:36;age=25
type=sensor;protocol=fineoffset;model=temperaturehumidity;id=199;temperature=1.5;humidity=65;time=2021-12-20;04:57:58;age=3;type=sensor;protocol=fineoffset;model=temperaturehumidity;id=135;temperature=-1.2;humidity=67;time=2021-12-20;04:57:16;age=45;type=sensor;protocol=fineoffset;model=temperature;id=212;temperature=20.6;time=2021-12-20;04:57:16;age=45;type=sensor;protocol=fineoffset;model=temperaturehumidity;id=167;temperature=21.5;humidity=39;time=2021-12-20;04:57:36;age=25
type=sensor;protocol=fineoffset;model=temperaturehumidity;id=199;temperature=1.3;humidity=65;time=2021-12-20;05:57:58;age=3;type=sensor;protocol=fineoffset;model=temperaturehumidity;id=135;temperature=-1.3;humidity=67;time=2021-12-20;05:57:16;age=45;type=sensor;protocol=fineoffset;model=temperature;id=212;temperature=20.6;time=2021-12-20;05:55:40;age=141;type=sensor;protocol=fineoffset;model=temperaturehumidity;id=167;temperature=21.5;humidity=39;time=2021-12-20;05:57:36;age=25
type=sensor;protocol=fineoffset;model=temperaturehumidity;id=199;temperature=1.2;humidity=65;time=2021-12-20;06:57:58;age=3;type=sensor;protocol=fineoffset;model=temperaturehumidity;id=135;temperature=-1.5;humidity=67;time=2021-12-20;06:55:40;age=141;type=sensor;protocol=fineoffset;model=temperature;id=212;temperature=20.6;time=2021-12-20;06:57:16;age=45;type=sensor;protocol=fineoffset;model=temperaturehumidity;id=167;temperature=21.5;humidity=39;time=2021-12-20;06:57:36;age=25
type=sensor;protocol=fineoffset;model=temperaturehumidity;id=199;temperature=1.0;humidity=68;time=2021-12-20;07:57:58;age=3;type=sensor;protocol=fineoffset;model=temperaturehumidity;id=135;temperature=-1.9;humidity=71;time=2021-12-20;07:46:52;age=669;type=sensor;protocol=fineoffset;model=temperature;id=212;temperature=20.7;time=2021-12-20;07:46:52;age=669;type=sensor;protocol=fineoffset;model=temperaturehumidity;id=167;temperature=21.5;humidity=39;time=2021-12-20;07:57:36;age=25
type=sensor;protocol=fineoffset;model=temperaturehumidity;id=199;temperature=0.8;humidity=69;time=2021-12-20;08:57:58;age=4;type=sensor;protocol=fineoffset;model=temperaturehumidity;id=135;temperature=-2.0;humidity=73;time=2021-12-20;08:51:40;age=382;type=sensor;protocol=fineoffset;model=temperature;id=212;temperature=21.2;time=2021-12-20;08:57:16;age=46;type=sensor;protocol=fineoffset;model=temperaturehumidity;id=167;temperature=21.8;humidity=40;time=2021-12-20;08:57:36;age=26
type=sensor;protocol=fineoffset;model=temperaturehumidity;id=199;temperature=0.7;humidity=67;time=2021-12-20;09:57:58;age=3;type=sensor;protocol=fineoffset;model=temperaturehumidity;id=135;temperature=-1.9;humidity=67;time=2021-12-20;09:57:16;age=45;type=sensor;protocol=fineoffset;model=temperature;id=212;temperature=21.0;time=2021-12-20;09:57:16;age=45;type=sensor;protocol=fineoffset;model=temperaturehumidity;id=167;temperature=21.8;humidity=39;time=2021-12-20;09:57:36;age=25
type=sensor;protocol=fineoffset;model=temperaturehumidity;id=199;temperature=0.5;humidity=65;time=2021-12-20;10:57:58;age=3;type=sensor;protocol=fineoffset;model=temperaturehumidity;id=135;temperature=-2.1;humidity=65;time=2021-12-20;10:57:16;age=45;type=sensor;protocol=fineoffset;model=temperature;id=212;temperature=21.0;time=2021-12-20;10:57:16;age=45;type=sensor;protocol=fineoffset;model=temperaturehumidity;id=167;temperature=21.8;humidity=39;time=2021-12-20;10:57:36;age=25
type=sensor;protocol=fineoffset;model=temperaturehumidity;id=199;temperature=0.4;humidity=65;time=2021-12-20;11:57:58;age=4;type=sensor;protocol=fineoffset;model=temperaturehumidity;id=135;temperature=-1.7;humidity=64;time=2021-12-20;11:57:16;age=46;type=sensor;protocol=fineoffset;model=temperature;id=212;temperature=21.9;time=2021-12-20;11:57:16;age=46;type=sensor;protocol=fineoffset;model=temperaturehumidity;id=167;temperature=21.8;humidity=38;time=2021-12-20;11:57:36;age=26
type=sensor;protocol=fineoffset;model=temperaturehumidity;id=199;temperature=0.6;humidity=65;time=2021-12-20;12:57:59;age=3;type=sensor;protocol=fineoffset;model=temperaturehumidity;id=135;temperature=-1.7;humidity=63;time=2021-12-20;12:57:17;age=45;type=sensor;protocol=fineoffset;model=temperature;id=212;temperature=21.9;time=2021-12-20;12:57:16;age=46;type=sensor;protocol=fineoffset;model=temperaturehumidity;id=167;temperature=21.8;humidity=39;time=2021-12-20;12:57:36;age=26
type=sensor;protocol=fineoffset;model=temperaturehumidity;id=199;temperature=0.7;humidity=65;time=2021-12-20;13:57:59;age=2;type=sensor;protocol=fineoffset;model=temperaturehumidity;id=135;temperature=-1.8;humidity=63;time=2021-12-20;13:57:17;age=44;type=sensor;protocol=fineoffset;model=temperature;id=212;temperature=21.7;time=2021-12-20;13:57:16;age=45;type=sensor;protocol=fineoffset;model=temperaturehumidity;id=167;temperature=22.1;humidity=39;time=2021-12-20;13:57:36;age=25
type=sensor;protocol=fineoffset;model=temperaturehumidity;id=199;temperature=1.1;humidity=65;time=2021-12-20;14:57:59;age=2;type=sensor;protocol=fineoffset;model=temperaturehumidity;id=135;temperature=-1.8;humidity=64;time=2021-12-20;14:57:17;age=44;type=sensor;protocol=fineoffset;model=temperature;id=212;temperature=21.4;time=2021-12-20;14:57:16;age=45;type=sensor;protocol=fineoffset;model=temperaturehumidity;id=167;temperature=21.9;humidity=39;time=2021-12-20;14:57:36;age=25
type=sensor;protocol=fineoffset;model=temperaturehumidity;id=199;temperature=0.7;humidity=65;time=2021-12-20;15:57:59;age=2;type=sensor;protocol=fineoffset;model=temperaturehumidity;id=135;temperature=-2.3;humidity=64;time=2021-12-20;15:57:17;age=44;type=sensor;protocol=fineoffset;model=temperature;id=212;temperature=21.6;time=2021-12-20;15:57:16;age=45;type=sensor;protocol=fineoffset;model=temperaturehumidity;id=167;temperature=21.9;humidity=39;time=2021-12-20;15:57:36;age=25
type=sensor;protocol=fineoffset;model=temperaturehumidity;id=199;temperature=0.6;humidity=65;time=2021-12-20;16:57:59;age=2;type=sensor;protocol=fineoffset;model=temperaturehumidity;id=135;temperature=-2.6;humidity=62;time=2021-12-20;16:57:17;age=44;type=sensor;protocol=fineoffset;model=temperature;id=212;temperature=22.1;time=2021-12-20;16:57:16;age=45;type=sensor;protocol=fineoffset;model=temperaturehumidity;id=167;temperature=21.9;humidity=40;time=2021-12-20;16:57:36;age=25
type=sensor;protocol=fineoffset;model=temperaturehumidity;id=199;temperature=0.6;humidity=66;time=2021-12-20;17:57:59;age=2;type=sensor;protocol=fineoffset;model=temperaturehumidity;id=135;temperature=-3.0;humidity=60;time=2021-12-20;17:57:17;age=44;type=sensor;protocol=fineoffset;model=temperature;id=212;temperature=22.0;time=2021-12-20;17:57:16;age=45;type=sensor;protocol=fineoffset;model=temperaturehumidity;id=167;temperature=21.9;humidity=40;time=2021-12-20;17:57:36;age=25
type=sensor;protocol=fineoffset;model=temperaturehumidity;id=199;temperature=0.0;humidity=66;time=2021-12-20;18:57:59;age=2;type=sensor;protocol=fineoffset;model=temperaturehumidity;id=135;temperature=-3.8;humidity=60;time=2021-12-20;18:56:29;age=92;type=sensor;protocol=fineoffset;model=temperature;id=212;temperature=21.8;time=2021-12-20;18:57:16;age=45;type=sensor;protocol=fineoffset;model=temperaturehumidity;id=167;temperature=21.7;humidity=39;time=2021-12-20;18:57:36;age=25
type=sensor;protocol=fineoffset;model=temperaturehumidity;id=199;temperature=-0.7;humidity=67;time=2021-12-20;19:57:59;age=2;type=sensor;protocol=fineoffset;model=temperaturehumidity;id=135;temperature=-4.7;humidity=60;time=2021-12-20;19:57:17;age=44;type=sensor;protocol=fineoffset;model=temperature;id=212;temperature=21.5;time=2021-12-20;19:57:16;age=45;type=sensor;protocol=fineoffset;model=temperaturehumidity;id=167;temperature=21.4;humidity=39;time=2021-12-20;19:57:36;age=25
type=sensor;protocol=fineoffset;model=temperaturehumidity;id=199;temperature=-1.3;humidity=67;time=2021-12-20;20:57:59;age=2;type=sensor;protocol=fineoffset;model=temperaturehumidity;id=135;temperature=-5.2;humidity=61;time=2021-12-20;20:57:17;age=44;type=sensor;protocol=fineoffset;model=temperature;id=212;temperature=21.4;time=2021-12-20;20:57:16;age=45;type=sensor;protocol=fineoffset;model=temperaturehumidity;id=167;temperature=21.4;humidity=39;time=2021-12-20;20:57:36;age=25
type=sensor;protocol=fineoffset;model=temperaturehumidity;id=199;temperature=-1.9;humidity=67;time=2021-12-20;21:57:59;age=2;type=sensor;protocol=fineoffset;model=temperaturehumidity;id=135;temperature=-5.2;humidity=65;time=2021-12-20;21:57:17;age=44;type=sensor;protocol=fineoffset;model=temperature;id=212;temperature=21.5;time=2021-12-20;21:57:16;age=45;type=sensor;protocol=fineoffset;model=temperaturehumidity;id=167;temperature=21.4;humidity=40;time=2021-12-20;21:57:36;age=25
type=sensor;protocol=fineoffset;model=temperaturehumidity;id=199;temperature=-2.1;humidity=69;time=2021-12-20;22:57:59;age=2;type=sensor;protocol=fineoffset;model=temperaturehumidity;id=135;temperature=-5.2;humidity=70;time=2021-12-20;22:57:17;age=44;type=sensor;protocol=fineoffset;model=temperature;id=212;temperature=21.4;time=2021-12-20;22:57:16;age=45;type=sensor;protocol=fineoffset;model=temperaturehumidity;id=167;temperature=21.3;humidity=39;time=2021-12-20;22:57:36;age=25
type=sensor;protocol=fineoffset;model=temperaturehumidity;id=199;temperature=-2.1;humidity=70;time=2021-12-20;23:57:59;age=2;type=sensor;protocol=fineoffset;model=temperaturehumidity;id=135;temperature=-5.2;humidity=72;time=2021-12-20;23:57:17;age=44;type=sensor;protocol=fineoffset;model=temperature;id=212;temperature=21.2;time=2021-12-20;23:57:16;age=45;type=sensor;protocol=fineoffset;model=temperaturehumidity;id=167;temperature=21.1;humidity=39;time=2021-12-20;23:57:36;age=25
