type=sensor;protocol=fineoffset;model=temperature;id=247;temperature=3.0;time=2021-04-23;00:57:46;age=15;type=sensor;protocol=fineoffset;model=temperaturehumidity;id=199;temperature=5.7;humidity=64;time=2021-04-23;00:57:53;age=8;type=sensor;protocol=fineoffset;model=temperaturehumidity;id=135;temperature=1.9;humidity=81;time=2021-04-23;00:57:31;age=30;type=sensor;protocol=fineoffset;model=temperaturehumidity;id=167;temperature=22.8;humidity=34;time=2021-04-23;00:57:31;age=30
type=sensor;protocol=fineoffset;model=temperature;id=247;temperature=2.9;time=2021-04-23;01:57:46;age=15;type=sensor;protocol=fineoffset;model=temperaturehumidity;id=199;temperature=5.1;humidity=64;time=2021-04-23;01:57:53;age=8;type=sensor;protocol=fineoffset;model=temperaturehumidity;id=135;temperature=1.9;humidity=80;time=2021-04-23;01:57:31;age=30;type=sensor;protocol=fineoffset;model=temperaturehumidity;id=167;temperature=22.7;humidity=34;time=2021-04-23;01:57:31;age=30
type=sensor;protocol=fineoffset;model=temperature;id=247;temperature=2.9;time=2021-04-23;02:57:46;age=15;type=sensor;protocol=fineoffset;model=temperaturehumidity;id=199;temperature=4.8;humidity=63;time=2021-04-23;02:57:53;age=8;type=sensor;protocol=fineoffset;model=temperaturehumidity;id=167;temperature=22.5;humidity=33;time=2021-04-23;02:57:31;age=30;type=sensor;protocol=fineoffset;model=temperaturehumidity;id=135;temperature=1.7;humidity=77;time=2021-04-23;02:57:31;age=30
type=sensor;protocol=fineoffset;model=temperature;id=247;temperature=2.5;time=2021-04-23;03:57:46;age=15;type=sensor;protocol=fineoffset;model=temperaturehumidity;id=199;temperature=4.4;humidity=63;time=2021-04-23;03:57:53;age=8;type=sensor;protocol=fineoffset;model=temperaturehumidity;id=167;temperature=22.4;humidity=33;time=2021-04-23;03:57:31;age=30;type=sensor;protocol=fineoffset;model=temperaturehumidity;id=135;temperature=1.2;humidity=76;time=2021-04-23;03:57:32;age=29
type=sensor;protocol=fineoffset;model=temperature;id=247;temperature=2.0;time=2021-04-23;04:57:46;age=15;type=sensor;protocol=fineoffset;model=temperaturehumidity;id=199;temperature=3.8;humidity=62;time=2021-04-23;04:57:53;age=8;type=sensor;protocol=fineoffset;model=temperaturehumidity;id=167;temperature=22.4;humidity=33;time=2021-04-23;04:57:31;age=30;type=sensor;protocol=fineoffset;model=temperaturehumidity;id=135;temperature=0.7;humidity=76;time=2021-04-23;04:57:32;age=29
type=sensor;protocol=fineoffset;model=temperature;id=247;temperature=1.8;time=2021-04-23;05:57:46;age=15;type=sensor;protocol=fineoffset;model=temperaturehumidity;id=199;temperature=3.4;humidity=62;time=2021-04-23;05:57:53;age=8;type=sensor;protocol=fineoffset;model=temperaturehumidity;id=167;temperature=22.3;humidity=33;time=2021-04-23;05:57:31;age=30;type=sensor;protocol=fineoffset;model=temperaturehumidity;id=135;temperature=0.6;humidity=76;time=2021-04-23;05:57:32;age=29
type=sensor;protocol=fineoffset;model=temperature;id=247;temperature=1.9;time=2021-04-23;06:57:46;age=15;type=sensor;protocol=fineoffset;model=temperaturehumidity;id=199;temperature=3.4;humidity=62;time=2021-04-23;06:57:53;age=8;type=sensor;protocol=fineoffset;model=temperaturehumidity;id=167;temperature=22.2;humidity=33;time=2021-04-23;06:57:31;age=30;type=sensor;protocol=fineoffset;model=temperaturehumidity;id=135;temperature=0.7;humidity=76;time=2021-04-23;06:57:32;age=29
type=sensor;protocol=fineoffset;model=temperature;id=247;temperature=4.6;time=2021-04-23;07:57:46;age=15;type=sensor;protocol=fineoffset;model=temperaturehumidity;id=199;temperature=3.7;humidity=62;time=2021-04-23;07:57:53;age=8;type=sensor;protocol=fineoffset;model=temperaturehumidity;id=167;temperature=22.2;humidity=33;time=2021-04-23;07:57:31;age=30;type=sensor;protocol=fineoffset;model=temperaturehumidity;id=135;temperature=1.6;humidity=75;time=2021-04-23;07:57:32;age=29
type=sensor;protocol=fineoffset;model=temperature;id=247;temperature=6.8;time=2021-04-23;08:57:46;age=15;type=sensor;protocol=fineoffset;model=temperaturehumidity;id=199;temperature=4.6;humidity=63;time=2021-04-23;08:57:53;age=8;type=sensor;protocol=fineoffset;model=temperaturehumidity;id=167;temperature=22.3;humidity=32;time=2021-04-23;08:57:31;age=30;type=sensor;protocol=fineoffset;model=temperaturehumidity;id=135;temperature=2.5;humidity=74;time=2021-04-23;08:57:32;age=29
type=sensor;protocol=fineoffset;model=temperature;id=247;temperature=7.2;time=2021-04-23;09:57:46;age=15;type=sensor;protocol=fineoffset;model=temperaturehumidity;id=199;temperature=5.9;humidity=62;time=2021-04-23;09:55:29;age=152;type=sensor;protocol=fineoffset;model=temperaturehumidity;id=167;temperature=22.3;humidity=32;time=2021-04-23;09:57:30;age=31;type=sensor;protocol=fineoffset;model=temperaturehumidity;id=135;temperature=3.3;humidity=73;time=2021-04-23;09:57:32;age=29
type=sensor;protocol=fineoffset;model=temperature;id=247;temperature=8.3;time=2021-04-23;10:57:46;age=15;type=sensor;protocol=fineoffset;model=temperaturehumidity;id=199;temperature=7.2;humidity=58;time=2021-04-23;10:56:17;age=104;type=sensor;protocol=fineoffset;model=temperaturehumidity;id=167;temperature=22.4;humidity=32;time=2021-04-23;10:57:30;age=31;type=sensor;protocol=fineoffset;model=temperaturehumidity;id=135;temperature=3.9;humidity=69;time=2021-04-23;10:57:32;age=29
type=sensor;protocol=fineoffset;model=temperature;id=247;temperature=10.0;time=2021-04-23;11:57:46;age=15;type=sensor;protocol=fineoffset;model=temperaturehumidity;id=199;temperature=8.3;humidity=52;time=2021-04-23;11:57:53;age=8;type=sensor;protocol=fineoffset;model=temperaturehumidity;id=167;temperature=22.6;humidity=32;time=2021-04-23;11:57:30;age=31;type=sensor;protocol=fineoffset;model=temperaturehumidity;id=135;temperature=5.2;humidity=59;time=2021-04-23;11:57:32;age=29
type=sensor;protocol=fineoffset;model=temperature;id=247;temperature=11.5;time=2021-04-23;12:57:46;age=15;type=sensor;protocol=fineoffset;model=temperaturehumidity;id=199;temperature=9.7;humidity=45;time=2021-04-23;12:57:53;age=8;type=sensor;protocol=fineoffset;model=temperaturehumidity;id=167;temperature=22.8;humidity=33;time=2021-04-23;12:57:30;age=31;type=sensor;protocol=fineoffset;model=temperaturehumidity;id=135;temperature=6.1;humidity=52;time=2021-04-23;12:57:32;age=29;type=sensor;protocol=fineoffset;model=temperaturehumidity;id=0;temperature=0.0;humidity=0;time=2021-04-23;12:56:11;age=110
type=sensor;protocol=fineoffset;model=temperature;id=247;temperature=11.3;time=2021-04-23;13:57:46;age=15;type=sensor;protocol=fineoffset;model=temperaturehumidity;id=199;temperature=10.4;humidity=42;time=2021-04-23;13:57:53;age=8;type=sensor;protocol=fineoffset;model=temperaturehumidity;id=167;temperature=22.7;humidity=34;time=2021-04-23;13:57:30;age=31;type=sensor;protocol=fineoffset;model=temperaturehumidity;id=135;temperature=6.6;humidity=51;time=2021-04-23;13:57:32;age=29;type=sensor;protocol=fineoffset;model=temperaturehumidity;id=0;temperature=0.0;humidity=0;time=2021-04-23;12:56:11;age=3710
type=sensor;protocol=fineoffset;model=temperature;id=247;temperature=10.9;time=2021-04-23;14:57:46;age=15;type=sensor;protocol=fineoffset;model=temperaturehumidity;id=199;temperature=10.8;humidity=38;time=2021-04-23;14:57:53;age=8;type=sensor;protocol=fineoffset;model=temperaturehumidity;id=167;temperature=22.6;humidity=34;time=2021-04-23;14:57:30;age=31;type=sensor;protocol=fineoffset;model=temperaturehumidity;id=135;temperature=6.5;humidity=49;time=2021-04-23;14:57:32;age=29;type=sensor;protocol=fineoffset;model=temperaturehumidity;id=0;temperature=0.0;humidity=0;time=2021-04-23;12:56:11;age=7310
type=sensor;protocol=fineoffset;model=temperature;id=247;temperature=10.4;time=2021-04-23;15:57:46;age=15;type=sensor;protocol=fineoffset;model=temperaturehumidity;id=199;temperature=10.7;humidity=37;time=2021-04-23;15:57:53;age=8;type=sensor;protocol=fineoffset;model=temperaturehumidity;id=167;temperature=22.5;humidity=33;time=2021-04-23;15:57:30;age=31;type=sensor;protocol=fineoffset;model=temperaturehumidity;id=135;temperature=6.6;humidity=48;time=2021-04-23;15:57:32;age=29;type=sensor;protocol=fineoffset;model=temperaturehumidity;id=0;temperature=0.0;humidity=0;time=2021-04-23;12:56:11;age=10910
type=sensor;protocol=fineoffset;model=temperature;id=247;temperature=9.7;time=2021-04-23;16:57:46;age=15;type=sensor;protocol=fineoffset;model=temperaturehumidity;id=199;temperature=10.6;humidity=34;time=2021-04-23;16:57:53;age=8;type=sensor;protocol=fineoffset;model=temperaturehumidity;id=167;temperature=22.5;humidity=33;time=2021-04-23;16:57:30;age=31;type=sensor;protocol=fineoffset;model=temperaturehumidity;id=135;temperature=6.3;humidity=47;time=2021-04-23;16:57:32;age=29;type=sensor;protocol=fineoffset;model=temperaturehumidity;id=0;temperature=0.0;humidity=0;time=2021-04-23;12:56:11;age=14510
type=sensor;protocol=fineoffset;model=temperature;id=247;temperature=10.0;time=2021-04-23;17:57:47;age=14;type=sensor;protocol=fineoffset;model=temperaturehumidity;id=199;temperature=10.9;humidity=36;time=2021-04-23;17:57:53;age=8;type=sensor;protocol=fineoffset;model=temperaturehumidity;id=167;temperature=22.4;humidity=34;time=2021-04-23;17:57:30;age=31;type=sensor;protocol=fineoffset;model=temperaturehumidity;id=135;temperature=7.1;humidity=45;time=2021-04-23;17:57:32;age=29;type=sensor;protocol=fineoffset;model=temperaturehumidity;id=0;temperature=0.0;humidity=0;time=2021-04-23;12:56:11;age=18110
type=sensor;protocol=fineoffset;model=temperature;id=247;temperature=10.0;time=2021-04-23;18:57:46;age=16;type=sensor;protocol=fineoffset;model=temperaturehumidity;id=199;temperature=10.9;humidity=34;time=2021-04-23;18:57:53;age=9;type=sensor;protocol=fineoffset;model=temperaturehumidity;id=167;temperature=22.4;humidity=34;time=2021-04-23;18:57:30;age=32;type=sensor;protocol=fineoffset;model=temperaturehumidity;id=135;temperature=7.3;humidity=44;time=2021-04-23;18:57:32;age=30;type=sensor;protocol=fineoffset;model=temperaturehumidity;id=0;temperature=0.0;humidity=0;time=2021-04-23;12:56:11;age=21711
type=sensor;protocol=fineoffset;model=temperature;id=247;temperature=8.6;time=2021-04-23;19:57:46;age=15;type=sensor;protocol=fineoffset;model=temperaturehumidity;id=199;temperature=10.2;humidity=32;time=2021-04-23;19:57:53;age=8;type=sensor;protocol=fineoffset;model=temperaturehumidity;id=167;temperature=22.4;humidity=34;time=2021-04-23;19:57:30;age=31;type=sensor;protocol=fineoffset;model=temperaturehumidity;id=135;temperature=6.4;humidity=44;time=2021-04-23;19:57:32;age=29;type=sensor;protocol=fineoffset;model=temperaturehumidity;id=0;temperature=0.0;humidity=0;time=2021-04-23;12:56:11;age=25310
type=sensor;protocol=fineoffset;model=temperature;id=247;temperature=7.1;time=2021-04-23;20:57:47;age=14;type=sensor;protocol=fineoffset;model=temperaturehumidity;id=199;temperature=9.5;humidity=35;time=2021-04-23;20:57:53;age=8;type=sensor;protocol=fineoffset;model=temperaturehumidity;id=167;temperature=22.4;humidity=34;time=2021-04-23;20:57:30;age=31;type=sensor;protocol=fineoffset;model=temperaturehumidity;id=135;temperature=5.6;humidity=46;time=2021-04-23;20:57:32;age=29;type=sensor;protocol=fineoffset;model=temperaturehumidity;id=0;temperature=0.0;humidity=0;time=2021-04-23;12:56:11;age=28910
type=sensor;protocol=fineoffset;model=temperature;id=247;temperature=5.3;time=2021-04-23;21:57:46;age=15;type=sensor;protocol=fineoffset;model=temperaturehumidity;id=199;temperature=8.8;humidity=39;time=2021-04-23;21:57:53;age=8;type=sensor;protocol=fineoffset;model=temperaturehumidity;id=167;temperature=22.6;humidity=35;time=2021-04-23;21:57:30;age=31;type=sensor;protocol=fineoffset;model=temperaturehumidity;id=135;temperature=4.1;humidity=51;time=2021-04-23;21:57:32;age=29;type=sensor;protocol=fineoffset;model=temperaturehumidity;id=0;temperature=0.0;humidity=0;time=2021-04-23;12:56:11;age=32510
type=sensor;protocol=fineoffset;model=temperature;id=247;temperature=4.0;time=2021-04-23;22:57:46;age=15;type=sensor;protocol=fineoffset;model=temperaturehumidity;id=199;temperature=7.4;humidity=40;time=2021-04-23;22:57:53;age=8;type=sensor;protocol=fineoffset;model=temperaturehumidity;id=167;temperature=22.6;humidity=35;time=2021-04-23;22:57:30;age=31;type=sensor;protocol=fineoffset;model=temperaturehumidity;id=135;temperature=3.5;humidity=51;time=2021-04-23;22:57:32;age=29;type=sensor;protocol=fineoffset;model=temperaturehumidity;id=0;temperature=0.0;humidity=0;time=2021-04-23;12:56:11;age=36110
type=sensor;protocol=fineoffset;model=temperature;id=247;temperature=3.7;time=2021-04-23;23:57:47;age=14;type=sensor;protocol=fineoffset;model=temperaturehumidity;id=199;temperature=6.1;humidity=40;time=2021-04-23;23:57:05;age=56;type=sensor;protocol=fineoffset;model=temperaturehumidity;id=167;temperature=22.4;humidity=35;time=2021-04-23;23:57:30;age=31;type=sensor;protocol=fineoffset;model=temperaturehumidity;id=135;temperature=3.2;humidity=51;time=2021-04-23;23:57:32;age=29;type=sensor;protocol=fineoffset;model=temperaturehumidity;id=0;temperature=0.0;humidity=0;time=2021-04-23;12:56:11;age=39710
