type=sensor;protocol=fineoffset;model=temperaturehumidity;id=135;temperature=7.2;humidity=62;time=2021-05-30;00:57:46;age=15;type=sensor;protocol=fineoffset;model=temperaturehumidity;id=199;temperature=12.9;humidity=44;time=2021-05-30;00:57:30;age=31;type=sensor;protocol=fineoffset;model=temperaturehumidity;id=167;temperature=22.2;humidity=42;time=2021-05-30;00:58:00;age=1;type=sensor;protocol=fineoffset;model=temperature;id=212;temperature=22.5;time=2021-05-30;00:57:40;age=21
type=sensor;protocol=fineoffset;model=temperaturehumidity;id=135;temperature=6.2;humidity=66;time=2021-05-30;01:57:46;age=15;type=sensor;protocol=fineoffset;model=temperaturehumidity;id=199;temperature=11.7;humidity=46;time=2021-05-30;01:57:30;age=31;type=sensor;protocol=fineoffset;model=temperaturehumidity;id=167;temperature=22.2;humidity=42;time=2021-05-30;01:58:00;age=1;type=sensor;protocol=fineoffset;model=temperature;id=212;temperature=22.4;time=2021-05-30;01:57:40;age=21
type=sensor;protocol=fineoffset;model=temperaturehumidity;id=135;temperature=5.6;humidity=68;time=2021-05-30;02:57:46;age=16;type=sensor;protocol=fineoffset;model=temperaturehumidity;id=167;temperature=22.3;humidity=42;time=2021-05-30;02:58:00;age=2;type=sensor;protocol=fineoffset;model=temperaturehumidity;id=199;temperature=10.6;humidity=50;time=2021-05-30;02:57:30;age=32;type=sensor;protocol=fineoffset;model=temperature;id=212;temperature=22.4;time=2021-05-30;02:57:40;age=22
type=sensor;protocol=fineoffset;model=temperaturehumidity;id=135;temperature=4.9;humidity=70;time=2021-05-30;03:57:47;age=14;type=sensor;protocol=fineoffset;model=temperaturehumidity;id=167;temperature=22.3;humidity=42;time=2021-05-30;03:58:00;age=1;type=sensor;protocol=fineoffset;model=temperaturehumidity;id=199;temperature=9.7;humidity=51;time=2021-05-30;03:57:30;age=31;type=sensor;protocol=fineoffset;model=temperature;id=212;temperature=22.4;time=2021-05-30;03:57:40;age=21
type=sensor;protocol=fineoffset;model=temperaturehumidity;id=135;temperature=4.7;humidity=71;time=2021-05-30;04:57:47;age=15;type=sensor;protocol=fineoffset;model=temperaturehumidity;id=167;temperature=22.3;humidity=42;time=2021-05-30;04:58:00;age=2;type=sensor;protocol=fineoffset;model=temperaturehumidity;id=199;temperature=9.0;humidity=53;time=2021-05-30;04:57:30;age=32;type=sensor;protocol=fineoffset;model=temperature;id=212;temperature=22.4;time=2021-05-30;04:57:40;age=22
type=sensor;protocol=fineoffset;model=temperaturehumidity;id=135;temperature=5.6;humidity=74;time=2021-05-30;05:57:47;age=14;type=sensor;protocol=fineoffset;model=temperaturehumidity;id=167;temperature=22.3;humidity=42;time=2021-05-30;05:58:00;age=1;type=sensor;protocol=fineoffset;model=temperaturehumidity;id=199;temperature=8.6;humidity=55;time=2021-05-30;05:57:30;age=31;type=sensor;protocol=fineoffset;model=temperature;id=212;temperature=22.4;time=2021-05-30;05:57:40;age=21
type=sensor;protocol=fineoffset;model=temperaturehumidity;id=135;temperature=7.8;humidity=72;time=2021-05-30;06:57:47;age=15;type=sensor;protocol=fineoffset;model=temperaturehumidity;id=167;temperature=21.9;humidity=42;time=2021-05-30;06:58:00;age=2;type=sensor;protocol=fineoffset;model=temperaturehumidity;id=199;temperature=8.8;humidity=55;time=2021-05-30;06:57:30;age=32;type=sensor;protocol=fineoffset;model=temperature;id=212;temperature=22.3;time=2021-05-30;06:57:40;age=22
type=sensor;protocol=fineoffset;model=temperaturehumidity;id=135;temperature=9.9;humidity=66;time=2021-05-30;07:57:47;age=14;type=sensor;protocol=fineoffset;model=temperaturehumidity;id=167;temperature=21.7;humidity=42;time=2021-05-30;07:58:00;age=1;type=sensor;protocol=fineoffset;model=temperaturehumidity;id=199;temperature=10.3;humidity=56;time=2021-05-30;07:57:30;age=31;type=sensor;protocol=fineoffset;model=temperature;id=212;temperature=22.2;time=2021-05-30;07:57:40;age=21
type=sensor;protocol=fineoffset;model=temperaturehumidity;id=135;temperature=11.6;humidity=62;time=2021-05-30;08:57:47;age=15;type=sensor;protocol=fineoffset;model=temperaturehumidity;id=167;temperature=21.9;humidity=43;time=2021-05-30;08:58:00;age=2;type=sensor;protocol=fineoffset;model=temperaturehumidity;id=199;temperature=14.0;humidity=56;time=2021-05-30;08:57:30;age=32;type=sensor;protocol=fineoffset;model=temperature;id=212;temperature=22.6;time=2021-05-30;08:57:40;age=22
type=sensor;protocol=fineoffset;model=temperaturehumidity;id=135;temperature=13.4;humidity=56;time=2021-05-30;09:57:47;age=14;type=sensor;protocol=fineoffset;model=temperaturehumidity;id=167;temperature=22.2;humidity=42;time=2021-05-30;09:58:00;age=1;type=sensor;protocol=fineoffset;model=temperaturehumidity;id=199;temperature=18.3;humidity=54;time=2021-05-30;09:57:30;age=31;type=sensor;protocol=fineoffset;model=temperature;id=212;temperature=23.2;time=2021-05-30;09:57:40;age=21
type=sensor;protocol=fineoffset;model=temperaturehumidity;id=135;temperature=14.8;humidity=55;time=2021-05-30;10:57:47;age=14;type=sensor;protocol=fineoffset;model=temperaturehumidity;id=167;temperature=22.4;humidity=41;time=2021-05-30;10:58:00;age=1;type=sensor;protocol=fineoffset;model=temperaturehumidity;id=199;temperature=22.9;humidity=50;time=2021-05-30;10:57:30;age=31;type=sensor;protocol=fineoffset;model=temperature;id=212;temperature=23.4;time=2021-05-30;10:57:40;age=21
type=sensor;protocol=fineoffset;model=temperaturehumidity;id=135;temperature=16.3;humidity=50;time=2021-05-30;11:57:47;age=14;type=sensor;protocol=fineoffset;model=temperaturehumidity;id=167;temperature=22.5;humidity=41;time=2021-05-30;11:58:00;age=1;type=sensor;protocol=fineoffset;model=temperaturehumidity;id=199;temperature=26.7;humidity=44;time=2021-05-30;11:57:30;age=31;type=sensor;protocol=fineoffset;model=temperature;id=212;temperature=23.5;time=2021-05-30;11:57:40;age=21
type=sensor;protocol=fineoffset;model=temperaturehumidity;id=135;temperature=18.1;humidity=46;time=2021-05-30;12:57:47;age=15;type=sensor;protocol=fineoffset;model=temperaturehumidity;id=167;temperature=22.3;humidity=39;time=2021-05-30;12:58:00;age=2;type=sensor;protocol=fineoffset;model=temperaturehumidity;id=199;temperature=29.3;humidity=38;time=2021-05-30;12:57:30;age=32;type=sensor;protocol=fineoffset;model=temperature;id=212;temperature=23.4;time=2021-05-30;12:57:40;age=22
type=sensor;protocol=fineoffset;model=temperaturehumidity;id=135;temperature=19.5;humidity=43;time=2021-05-30;13:57:47;age=15;type=sensor;protocol=fineoffset;model=temperaturehumidity;id=167;temperature=22.3;humidity=39;time=2021-05-30;13:58:00;age=2;type=sensor;protocol=fineoffset;model=temperaturehumidity;id=199;temperature=31.7;humidity=31;time=2021-05-30;13:57:29;age=33;type=sensor;protocol=fineoffset;model=temperature;id=212;temperature=23.4;time=2021-05-30;13:57:40;age=22
type=sensor;protocol=fineoffset;model=temperaturehumidity;id=135;temperature=20.6;humidity=41;time=2021-05-30;14:57:47;age=14;type=sensor;protocol=fineoffset;model=temperaturehumidity;id=167;temperature=22.2;humidity=39;time=2021-05-30;14:58:00;age=1;type=sensor;protocol=fineoffset;model=temperaturehumidity;id=199;temperature=32.4;humidity=26;time=2021-05-30;14:57:29;age=32;type=sensor;protocol=fineoffset;model=temperature;id=212;temperature=23.2;time=2021-05-30;14:57:40;age=21
type=sensor;protocol=fineoffset;model=temperaturehumidity;id=135;temperature=19.1;humidity=40;time=2021-05-30;15:57:47;age=15;type=sensor;protocol=fineoffset;model=temperaturehumidity;id=167;temperature=22.2;humidity=39;time=2021-05-30;15:58:00;age=2;type=sensor;protocol=fineoffset;model=temperaturehumidity;id=199;temperature=33.3;humidity=22;time=2021-05-30;15:57:29;age=33;type=sensor;protocol=fineoffset;model=temperature;id=212;temperature=23.2;time=2021-05-30;15:57:40;age=22
type=sensor;protocol=fineoffset;model=temperaturehumidity;id=135;temperature=18.3;humidity=42;time=2021-05-30;16:57:47;age=14;type=sensor;protocol=fineoffset;model=temperaturehumidity;id=167;temperature=22.1;humidity=38;time=2021-05-30;16:58:00;age=1;type=sensor;protocol=fineoffset;model=temperaturehumidity;id=199;temperature=31.8;humidity=20;time=2021-05-30;16:57:29;age=32;type=sensor;protocol=fineoffset;model=temperature;id=212;temperature=23.0;time=2021-05-30;16:57:40;age=21
type=sensor;protocol=fineoffset;model=temperaturehumidity;id=135;temperature=17.4;humidity=43;time=2021-05-30;17:57:47;age=15;type=sensor;protocol=fineoffset;model=temperaturehumidity;id=167;temperature=22.2;humidity=38;time=2021-05-30;17:58:00;age=2;type=sensor;protocol=fineoffset;model=temperaturehumidity;id=199;temperature=29.4;humidity=20;time=2021-05-30;17:57:29;age=33;type=sensor;protocol=fineoffset;model=temperature;id=212;temperature=22.9;time=2021-05-30;17:57:40;age=22
type=sensor;protocol=fineoffset;model=temperaturehumidity;id=135;temperature=16.7;humidity=43;time=2021-05-30;18:57:47;age=14;type=sensor;protocol=fineoffset;model=temperaturehumidity;id=167;temperature=22.1;humidity=38;time=2021-05-30;18:58:00;age=1;type=sensor;protocol=fineoffset;model=temperaturehumidity;id=199;temperature=26.8;humidity=21;time=2021-05-30;18:57:29;age=32;type=sensor;protocol=fineoffset;model=temperature;id=212;temperature=23.0;time=2021-05-30;18:57:40;age=21
type=sensor;protocol=fineoffset;model=temperaturehumidity;id=135;temperature=16.1;humidity=42;time=2021-05-30;19:57:46;age=16;type=sensor;protocol=fineoffset;model=temperaturehumidity;id=167;temperature=22.1;humidity=38;time=2021-05-30;19:58:00;age=2;type=sensor;protocol=fineoffset;model=temperaturehumidity;id=199;temperature=24.4;humidity=20;time=2021-05-30;19:57:29;age=33;type=sensor;protocol=fineoffset;model=temperature;id=212;temperature=23.0;time=2021-05-30;19:40:04;age=1078
type=sensor;protocol=fineoffset;model=temperaturehumidity;id=135;temperature=15.4;humidity=42;time=2021-05-30;20:57:46;age=16;type=sensor;protocol=fineoffset;model=temperaturehumidity;id=167;temperature=21.9;humidity=39;time=2021-05-30;20:58:00;age=2;type=sensor;protocol=fineoffset;model=temperaturehumidity;id=199;temperature=22.6;humidity=22;time=2021-05-30;20:57:29;age=33;type=sensor;protocol=fineoffset;model=temperature;id=212;temperature=22.5;time=2021-05-30;20:56:52;age=70
type=sensor;protocol=fineoffset;model=temperaturehumidity;id=135;temperature=13.9;humidity=44;time=2021-05-30;21:57:46;age=15;type=sensor;protocol=fineoffset;model=temperaturehumidity;id=167;temperature=21.7;humidity=39;time=2021-05-30;21:58:00;age=1;type=sensor;protocol=fineoffset;model=temperaturehumidity;id=199;temperature=20.6;humidity=23;time=2021-05-30;21:57:29;age=32;type=sensor;protocol=fineoffset;model=temperature;id=212;temperature=22.2;time=2021-05-30;21:56:04;age=117
type=sensor;protocol=fineoffset;model=temperaturehumidity;id=135;temperature=12.3;humidity=49;time=2021-05-30;22:57:46;age=15;type=sensor;protocol=fineoffset;model=temperaturehumidity;id=167;temperature=21.5;humidity=39;time=2021-05-30;22:58:00;age=1;type=sensor;protocol=fineoffset;model=temperaturehumidity;id=199;temperature=18.7;humidity=27;time=2021-05-30;22:57:29;age=32;type=sensor;protocol=fineoffset;model=temperature;id=212;temperature=21.9;time=2021-05-30;22:56:52;age=69
type=sensor;protocol=fineoffset;model=temperaturehumidity;id=135;temperature=11.7;humidity=50;time=2021-05-30;23:57:46;age=16;type=sensor;protocol=fineoffset;model=temperaturehumidity;id=167;temperature=21.4;humidity=39;time=2021-05-30;23:58:00;age=2;type=sensor;protocol=fineoffset;model=temperaturehumidity;id=199;temperature=16.9;humidity=31;time=2021-05-30;23:57:29;age=33;type=sensor;protocol=fineoffset;model=temperature;id=212;temperature=21.7;time=2021-05-30;23:57:40;age=22
