type=sensor;protocol=fineoffset;model=temperaturehumidity;id=199;temperature=7.9;humidity=82;time=2021-11-15;00:57:42;age=20;type=sensor;protocol=fineoffset;model=temperaturehumidity;id=167;temperature=22.6;humidity=47;time=2021-11-15;00:57:47;age=15;type=sensor;protocol=fineoffset;model=temperaturehumidity;id=135;temperature=4.3;humidity=87;time=2021-11-15;00:57:56;age=6;type=sensor;protocol=fineoffset;model=temperature;id=212;temperature=23.1;time=2021-11-15;00:57:58;age=4
type=sensor;protocol=fineoffset;model=temperaturehumidity;id=199;temperature=7.7;humidity=81;time=2021-11-15;01:57:42;age=19;type=sensor;protocol=fineoffset;model=temperaturehumidity;id=167;temperature=22.6;humidity=47;time=2021-11-15;01:57:47;age=14;type=sensor;protocol=fineoffset;model=temperaturehumidity;id=135;temperature=4.1;humidity=87;time=2021-11-15;01:57:56;age=5;type=sensor;protocol=fineoffset;model=temperature;id=212;temperature=22.9;time=2021-11-15;01:57:58;age=3
type=sensor;protocol=fineoffset;model=temperaturehumidity;id=199;temperature=7.6;humidity=82;time=2021-11-15;02:57:42;age=20;type=sensor;protocol=fineoffset;model=temperaturehumidity;id=167;temperature=22.6;humidity=47;time=2021-11-15;02:57:47;age=15;type=sensor;protocol=fineoffset;model=temperaturehumidity;id=135;temperature=3.9;humidity=87;time=2021-11-15;02:57:56;age=6;type=sensor;protocol=fineoffset;model=temperature;id=212;temperature=22.9;time=2021-11-15;02:57:59;age=3
type=sensor;protocol=fineoffset;model=temperaturehumidity;id=199;temperature=7.6;humidity=82;time=2021-11-15;03:57:42;age=19;type=sensor;protocol=fineoffset;model=temperaturehumidity;id=167;temperature=22.6;humidity=47;time=2021-11-15;03:57:47;age=14;type=sensor;protocol=fineoffset;model=temperaturehumidity;id=135;temperature=3.9;humidity=87;time=2021-11-15;03:57:56;age=5;type=sensor;protocol=fineoffset;model=temperature;id=212;temperature=22.8;time=2021-11-15;03:57:59;age=2
type=sensor;protocol=fineoffset;model=temperaturehumidity;id=199;temperature=7.5;humidity=82;time=2021-11-15;04:57:42;age=19;type=sensor;protocol=fineoffset;model=temperaturehumidity;id=167;temperature=22.6;humidity=47;time=2021-11-15;04:57:47;age=14;type=sensor;protocol=fineoffset;model=temperaturehumidity;id=135;temperature=3.8;humidity=88;time=2021-11-15;04:57:56;age=5;type=sensor;protocol=fineoffset;model=temperature;id=212;temperature=22.8;time=2021-11-15;04:57:58;age=3
type=sensor;protocol=fineoffset;model=temperaturehumidity;id=199;temperature=7.2;humidity=81;time=2021-11-15;05:57:42;age=20;type=sensor;protocol=fineoffset;model=temperaturehumidity;id=167;temperature=22.6;humidity=47;time=2021-11-15;05:57:47;age=15;type=sensor;protocol=fineoffset;model=temperaturehumidity;id=135;temperature=3.1;humidity=85;time=2021-11-15;05:57:56;age=6;type=sensor;protocol=fineoffset;model=temperature;id=212;temperature=22.7;time=2021-11-15;05:57:59;age=3
type=sensor;protocol=fineoffset;model=temperaturehumidity;id=199;temperature=6.6;humidity=82;time=2021-11-15;06:57:42;age=20;type=sensor;protocol=fineoffset;model=temperaturehumidity;id=167;temperature=22.5;humidity=47;time=2021-11-15;06:57:47;age=15;type=sensor;protocol=fineoffset;model=temperaturehumidity;id=135;temperature=2.8;humidity=86;time=2021-11-15;06:57:56;age=6;type=sensor;protocol=fineoffset;model=temperature;id=212;temperature=22.7;time=2021-11-15;06:57:58;age=4
type=sensor;protocol=fineoffset;model=temperaturehumidity;id=199;temperature=6.3;humidity=82;time=2021-11-15;07:57:42;age=19;type=sensor;protocol=fineoffset;model=temperaturehumidity;id=167;temperature=22.4;humidity=46;time=2021-11-15;07:57:47;age=14;type=sensor;protocol=fineoffset;model=temperaturehumidity;id=135;temperature=3.3;humidity=87;time=2021-11-15;07:57:56;age=5;type=sensor;protocol=fineoffset;model=temperature;id=212;temperature=22.5;time=2021-11-15;07:57:59;age=2
type=sensor;protocol=fineoffset;model=temperaturehumidity;id=199;temperature=6.4;humidity=83;time=2021-11-15;08:57:42;age=19;type=sensor;protocol=fineoffset;model=temperaturehumidity;id=167;temperature=22.3;humidity=46;time=2021-11-15;08:57:47;age=14;type=sensor;protocol=fineoffset;model=temperaturehumidity;id=135;temperature=4.2;humidity=87;time=2021-11-15;08:57:56;age=5;type=sensor;protocol=fineoffset;model=temperature;id=212;temperature=22.4;time=2021-11-15;08:57:58;age=3
type=sensor;protocol=fineoffset;model=temperaturehumidity;id=199;temperature=6.9;humidity=84;time=2021-11-15;09:57:42;age=19;type=sensor;protocol=fineoffset;model=temperaturehumidity;id=167;temperature=22.1;humidity=46;time=2021-11-15;09:57:47;age=14;type=sensor;protocol=fineoffset;model=temperaturehumidity;id=135;temperature=5.0;humidity=85;time=2021-11-15;09:57:56;age=5;type=sensor;protocol=fineoffset;model=temperature;id=212;temperature=22.3;time=2021-11-15;09:57:59;age=2
type=sensor;protocol=fineoffset;model=temperaturehumidity;id=199;temperature=7.4;humidity=82;time=2021-11-15;10:57:42;age=19;type=sensor;protocol=fineoffset;model=temperaturehumidity;id=167;temperature=22.1;humidity=46;time=2021-11-15;10:57:47;age=14;type=sensor;protocol=fineoffset;model=temperaturehumidity;id=135;temperature=5.6;humidity=81;time=2021-11-15;10:57:56;age=5;type=sensor;protocol=fineoffset;model=temperature;id=212;temperature=22.2;time=2021-11-15;10:57:58;age=3
type=sensor;protocol=fineoffset;model=temperaturehumidity;id=199;temperature=8.0;humidity=82;time=2021-11-15;11:57:42;age=20;type=sensor;protocol=fineoffset;model=temperaturehumidity;id=167;temperature=22.1;humidity=46;time=2021-11-15;11:57:47;age=15;type=sensor;protocol=fineoffset;model=temperaturehumidity;id=135;temperature=5.8;humidity=80;time=2021-11-15;11:57:56;age=6;type=sensor;protocol=fineoffset;model=temperature;id=212;temperature=22.1;time=2021-11-15;11:57:59;age=3
type=sensor;protocol=fineoffset;model=temperaturehumidity;id=199;temperature=8.5;humidity=81;time=2021-11-15;12:57:42;age=19;type=sensor;protocol=fineoffset;model=temperaturehumidity;id=167;temperature=22.1;humidity=46;time=2021-11-15;12:57:47;age=14;type=sensor;protocol=fineoffset;model=temperaturehumidity;id=135;temperature=6.0;humidity=79;time=2021-11-15;12:57:56;age=5;type=sensor;protocol=fineoffset;model=temperature;id=212;temperature=22.1;time=2021-11-15;12:57:59;age=2
type=sensor;protocol=fineoffset;model=temperaturehumidity;id=199;temperature=8.7;humidity=80;time=2021-11-15;13:57:42;age=19;type=sensor;protocol=fineoffset;model=temperaturehumidity;id=167;temperature=22.1;humidity=46;time=2021-11-15;13:57:47;age=14;type=sensor;protocol=fineoffset;model=temperaturehumidity;id=135;temperature=6.0;humidity=79;time=2021-11-15;13:57:56;age=5;type=sensor;protocol=fineoffset;model=temperature;id=212;temperature=22.1;time=2021-11-15;13:57:58;age=3
type=sensor;protocol=fineoffset;model=temperaturehumidity;id=199;temperature=8.8;humidity=79;time=2021-11-15;14:57:42;age=20;type=sensor;protocol=fineoffset;model=temperaturehumidity;id=167;temperature=22.0;humidity=46;time=2021-11-15;14:57:47;age=15;type=sensor;protocol=fineoffset;model=temperaturehumidity;id=135;temperature=5.8;humidity=78;time=2021-11-15;14:57:56;age=6;type=sensor;protocol=fineoffset;model=temperature;id=212;temperature=22.0;time=2021-11-15;14:57:59;age=3
type=sensor;protocol=fineoffset;model=temperaturehumidity;id=199;temperature=8.7;humidity=78;time=2021-11-15;15:57:42;age=19;type=sensor;protocol=fineoffset;model=temperaturehumidity;id=167;temperature=21.9;humidity=46;time=2021-11-15;15:57:47;age=14;type=sensor;protocol=fineoffset;model=temperaturehumidity;id=135;temperature=5.6;humidity=78;time=2021-11-15;15:57:56;age=5;type=sensor;protocol=fineoffset;model=temperature;id=212;temperature=22.0;time=2021-11-15;15:57:59;age=2
type=sensor;protocol=fineoffset;model=temperaturehumidity;id=199;temperature=8.4;humidity=78;time=2021-11-15;16:57:42;age=19;type=sensor;protocol=fineoffset;model=temperaturehumidity;id=167;temperature=21.8;humidity=46;time=2021-11-15;16:57:47;age=14;type=sensor;protocol=fineoffset;model=temperaturehumidity;id=135;temperature=5.4;humidity=78;time=2021-11-15;16:57:56;age=5;type=sensor;protocol=fineoffset;model=temperature;id=212;temperature=22.0;time=2021-11-15;16:57:59;age=2
type=sensor;protocol=fineoffset;model=temperaturehumidity;id=199;temperature=8.2;humidity=78;time=2021-11-15;17:57:42;age=20;type=sensor;protocol=fineoffset;model=temperaturehumidity;id=167;temperature=21.9;humidity=46;time=2021-11-15;17:57:47;age=15;type=sensor;protocol=fineoffset;model=temperaturehumidity;id=135;temperature=5.1;humidity=77;time=2021-11-15;17:57:56;age=6;type=sensor;protocol=fineoffset;model=temperature;id=212;temperature=21.8;time=2021-11-15;17:57:59;age=3
type=sensor;protocol=fineoffset;model=temperaturehumidity;id=199;temperature=8.1;humidity=78;time=2021-11-15;18:57:42;age=19;type=sensor;protocol=fineoffset;model=temperaturehumidity;id=167;temperature=22.0;humidity=46;time=2021-11-15;18:57:47;age=14;type=sensor;protocol=fineoffset;model=temperaturehumidity;id=135;temperature=4.9;humidity=78;time=2021-11-15;18:57:56;age=5;type=sensor;protocol=fineoffset;model=temperature;id=212;temperature=21.9;time=2021-11-15;18:57:59;age=2
type=sensor;protocol=fineoffset;model=temperaturehumidity;id=199;temperature=7.9;humidity=78;time=2021-11-15;19:57:42;age=19;type=sensor;protocol=fineoffset;model=temperaturehumidity;id=167;temperature=21.8;humidity=46;time=2021-11-15;19:57:47;age=14;type=sensor;protocol=fineoffset;model=temperaturehumidity;id=135;temperature=4.9;humidity=78;time=2021-11-15;19:57:56;age=5;type=sensor;protocol=fineoffset;model=temperature;id=212;temperature=22.3;time=2021-11-15;19:57:59;age=2
type=sensor;protocol=fineoffset;model=temperaturehumidity;id=199;temperature=7.7;humidity=77;time=2021-11-15;20:57:42;age=20;type=sensor;protocol=fineoffset;model=temperaturehumidity;id=167;temperature=21.8;humidity=46;time=2021-11-15;20:57:47;age=15;type=sensor;protocol=fineoffset;model=temperaturehumidity;id=135;temperature=4.9;humidity=78;time=2021-11-15;20:57:56;age=6;type=sensor;protocol=fineoffset;model=temperature;id=212;temperature=22.3;time=2021-11-15;20:57:59;age=3
type=sensor;protocol=fineoffset;model=temperaturehumidity;id=199;temperature=7.6;humidity=77;time=2021-11-15;21:57:42;age=19;type=sensor;protocol=fineoffset;model=temperaturehumidity;id=167;temperature=21.8;humidity=46;time=2021-11-15;21:57:47;age=14;type=sensor;protocol=fineoffset;model=temperaturehumidity;id=135;temperature=4.8;humidity=78;time=2021-11-15;21:57:56;age=5;type=sensor;protocol=fineoffset;model=temperature;id=212;temperature=22.3;time=2021-11-15;21:57:59;age=2
type=sensor;protocol=fineoffset;model=temperaturehumidity;id=199;temperature=7.7;humidity=77;time=2021-11-15;22:57:42;age=19;type=sensor;protocol=fineoffset;model=temperaturehumidity;id=167;temperature=21.7;humidity=47;time=2021-11-15;22:57:47;age=14;type=sensor;protocol=fineoffset;model=temperaturehumidity;id=135;temperature=4.8;humidity=78;time=2021-11-15;22:57:57;age=4;type=sensor;protocol=fineoffset;model=temperature;id=212;temperature=22.2;time=2021-11-15;22:57:59;age=2
type=sensor;protocol=fineoffset;model=temperaturehumidity;id=199;temperature=7.7;humidity=77;time=2021-11-15;23:57:42;age=20;type=sensor;protocol=fineoffset;model=temperaturehumidity;id=167;temperature=21.7;humidity=47;time=2021-11-15;23:57:47;age=15;type=sensor;protocol=fineoffset;model=temperaturehumidity;id=135;temperature=4.9;humidity=78;time=2021-11-15;23:57:57;age=5;type=sensor;protocol=fineoffset;model=temperature;id=212;temperature=22.1;time=2021-11-15;23:57:59;age=3
