type=sensor;protocol=fineoffset;model=temperaturehumidity;id=167;temperature=19.6;humidity=37;time=2021-12-07;00:57:40;age=22;type=sensor;protocol=fineoffset;model=temperaturehumidity;id=135;temperature=-12.7;humidity=67;time=2021-12-07;00:56:08;age=114;type=sensor;protocol=fineoffset;model=temperaturehumidity;id=199;temperature=-5.4;humidity=76;time=2021-12-07;00:57:53;age=9;type=sensor;protocol=fineoffset;model=temperature;id=212;temperature=20.1;time=2021-12-07;00:57:14;age=48
type=sensor;protocol=fineoffset;model=temperaturehumidity;id=167;temperature=19.4;humidity=37;time=2021-12-07;01:57:40;age=22;type=sensor;protocol=fineoffset;model=temperaturehumidity;id=135;temperature=-12.9;humidity=67;time=2021-12-07;01:55:20;age=162;type=sensor;protocol=fineoffset;model=temperaturehumidity;id=199;temperature=-5.7;humidity=75;time=2021-12-07;01:57:53;age=9;type=sensor;protocol=fineoffset;model=temperature;id=212;temperature=20.0;time=2021-12-07;01:57:14;age=48
type=sensor;protocol=fineoffset;model=temperaturehumidity;id=167;temperature=19.4;humidity=37;time=2021-12-07;02:57:40;age=22;type=sensor;protocol=fineoffset;model=temperaturehumidity;id=135;temperature=-13.2;humidity=66;time=2021-12-07;02:57:44;age=18;type=sensor;protocol=fineoffset;model=temperaturehumidity;id=199;temperature=-5.9;humidity=75;time=2021-12-07;02:57:53;age=9;type=sensor;protocol=fineoffset;model=temperature;id=212;temperature=19.9;time=2021-12-07;02:57:14;age=48
type=sensor;protocol=fineoffset;model=temperaturehumidity;id=167;temperature=19.4;humidity=37;time=2021-12-07;03:57:40;age=22;type=sensor;protocol=fineoffset;model=temperaturehumidity;id=135;temperature=-13.2;humidity=66;time=2021-12-07;03:56:08;age=114;type=sensor;protocol=fineoffset;model=temperaturehumidity;id=199;temperature=-6.2;humidity=75;time=2021-12-07;03:57:54;age=8;type=sensor;protocol=fineoffset;model=temperature;id=212;temperature=20.4;time=2021-12-07;03:57:14;age=48
type=sensor;protocol=fineoffset;model=temperaturehumidity;id=167;temperature=19.2;humidity=37;time=2021-12-07;04:57:40;age=21;type=sensor;protocol=fineoffset;model=temperaturehumidity;id=135;temperature=-13.3;humidity=66;time=2021-12-07;04:57:45;age=16;type=sensor;protocol=fineoffset;model=temperaturehumidity;id=199;temperature=-6.2;humidity=76;time=2021-12-07;04:57:54;age=7;type=sensor;protocol=fineoffset;model=temperature;id=212;temperature=20.6;time=2021-12-07;04:57:14;age=47
type=sensor;protocol=fineoffset;model=temperaturehumidity;id=167;temperature=19.2;humidity=37;time=2021-12-07;05:57:40;age=22;type=sensor;protocol=fineoffset;model=temperaturehumidity;id=135;temperature=-13.3;humidity=66;time=2021-12-07;05:57:45;age=17;type=sensor;protocol=fineoffset;model=temperaturehumidity;id=199;temperature=-6.2;humidity=76;time=2021-12-07;05:57:54;age=8;type=sensor;protocol=fineoffset;model=temperature;id=212;temperature=20.4;time=2021-12-07;05:57:14;age=48
type=sensor;protocol=fineoffset;model=temperaturehumidity;id=167;temperature=19.2;humidity=37;time=2021-12-07;06:57:40;age=21;type=sensor;protocol=fineoffset;model=temperaturehumidity;id=135;temperature=-13.3;humidity=66;time=2021-12-07;06:57:45;age=16;type=sensor;protocol=fineoffset;model=temperaturehumidity;id=199;temperature=-6.3;humidity=76;time=2021-12-07;06:57:54;age=7;type=sensor;protocol=fineoffset;model=temperature;id=212;temperature=20.2;time=2021-12-07;06:57:14;age=47
type=sensor;protocol=fineoffset;model=temperaturehumidity;id=167;temperature=19.0;humidity=37;time=2021-12-07;07:57:40;age=22;type=sensor;protocol=fineoffset;model=temperaturehumidity;id=135;temperature=-13.2;humidity=67;time=2021-12-07;07:57:45;age=17;type=sensor;protocol=fineoffset;model=temperaturehumidity;id=199;temperature=-6.4;humidity=76;time=2021-12-07;07:57:54;age=8;type=sensor;protocol=fineoffset;model=temperature;id=212;temperature=19.9;time=2021-12-07;07:57:14;age=48
type=sensor;protocol=fineoffset;model=temperaturehumidity;id=167;temperature=19.0;humidity=37;time=2021-12-07;08:57:40;age=21;type=sensor;protocol=fineoffset;model=temperaturehumidity;id=135;temperature=-13.1;humidity=67;time=2021-12-07;08:28:57;age=1744;type=sensor;protocol=fineoffset;model=temperaturehumidity;id=199;temperature=-6.2;humidity=76;time=2021-12-07;08:57:54;age=7;type=sensor;protocol=fineoffset;model=temperature;id=212;temperature=19.6;time=2021-12-07;08:57:14;age=47
type=sensor;protocol=fineoffset;model=temperaturehumidity;id=167;temperature=19.0;humidity=37;time=2021-12-07;09:57:40;age=21;type=sensor;protocol=fineoffset;model=temperaturehumidity;id=135;temperature=-12.2;humidity=68;time=2021-12-07;09:57:45;age=16;type=sensor;protocol=fineoffset;model=temperaturehumidity;id=199;temperature=-6.1;humidity=76;time=2021-12-07;09:57:54;age=7;type=sensor;protocol=fineoffset;model=temperature;id=212;temperature=19.7;time=2021-12-07;09:57:14;age=47
type=sensor;protocol=fineoffset;model=temperaturehumidity;id=167;temperature=19.0;humidity=37;time=2021-12-07;10:57:40;age=21;type=sensor;protocol=fineoffset;model=temperaturehumidity;id=135;temperature=-11.2;humidity=70;time=2021-12-07;10:56:10;age=111;type=sensor;protocol=fineoffset;model=temperaturehumidity;id=199;temperature=-5.9;humidity=76;time=2021-12-07;10:57:54;age=7;type=sensor;protocol=fineoffset;model=temperature;id=212;temperature=19.6;time=2021-12-07;10:57:14;age=47
type=sensor;protocol=fineoffset;model=temperaturehumidity;id=167;temperature=19.0;humidity=37;time=2021-12-07;11:57:40;age=21;type=sensor;protocol=fineoffset;model=temperaturehumidity;id=135;temperature=-9.8;humidity=72;time=2021-12-07;11:53:46;age=255;type=sensor;protocol=fineoffset;model=temperaturehumidity;id=199;temperature=-5.6;humidity=77;time=2021-12-07;11:57:54;age=7;type=sensor;protocol=fineoffset;model=temperature;id=212;temperature=19.3;time=2021-12-07;11:57:14;age=47
type=sensor;protocol=fineoffset;model=temperaturehumidity;id=167;temperature=19.1;humidity=36;time=2021-12-07;12:57:40;age=21;type=sensor;protocol=fineoffset;model=temperaturehumidity;id=135;temperature=-9.0;humidity=74;time=2021-12-07;12:57:46;age=15;type=sensor;protocol=fineoffset;model=temperaturehumidity;id=199;temperature=-5.2;humidity=78;time=2021-12-07;12:57:54;age=7;type=sensor;protocol=fineoffset;model=temperature;id=212;temperature=19.1;time=2021-12-07;12:57:14;age=47
type=sensor;protocol=fineoffset;model=temperaturehumidity;id=167;temperature=19.2;humidity=36;time=2021-12-07;13:57:40;age=21;type=sensor;protocol=fineoffset;model=temperaturehumidity;id=135;temperature=-8.9;humidity=74;time=2021-12-07;13:57:46;age=15;type=sensor;protocol=fineoffset;model=temperaturehumidity;id=199;temperature=-4.4;humidity=79;time=2021-12-07;13:57:54;age=7;type=sensor;protocol=fineoffset;model=temperature;id=212;temperature=19.2;time=2021-12-07;13:57:14;age=47
type=sensor;protocol=fineoffset;model=temperaturehumidity;id=167;temperature=20.4;humidity=37;time=2021-12-07;14:44:52;age=789;type=sensor;protocol=fineoffset;model=temperaturehumidity;id=135;temperature=-9.2;humidity=73;time=2021-12-07;14:57:46;age=15;type=sensor;protocol=fineoffset;model=temperaturehumidity;id=199;temperature=-4.1;humidity=79;time=2021-12-07;14:57:54;age=7;type=sensor;protocol=fineoffset;model=temperature;id=212;temperature=19.7;time=2021-12-07;14:57:14;age=47
type=sensor;protocol=fineoffset;model=temperaturehumidity;id=167;temperature=20.6;humidity=37;time=2021-12-07;15:52:04;age=357;type=sensor;protocol=fineoffset;model=temperaturehumidity;id=135;temperature=-9.8;humidity=72;time=2021-12-07;15:57:46;age=15;type=sensor;protocol=fineoffset;model=temperaturehumidity;id=199;temperature=-3.8;humidity=79;time=2021-12-07;15:57:54;age=7;type=sensor;protocol=fineoffset;model=temperature;id=212;temperature=19.9;time=2021-12-07;15:57:14;age=47
type=sensor;protocol=fineoffset;model=temperaturehumidity;id=167;temperature=20.6;humidity=37;time=2021-12-07;15:52:04;age=3958;type=sensor;protocol=fineoffset;model=temperaturehumidity;id=135;temperature=-10.5;humidity=70;time=2021-12-07;16:57:46;age=16;type=sensor;protocol=fineoffset;model=temperaturehumidity;id=199;temperature=-3.8;humidity=78;time=2021-12-07;16:57:55;age=7;type=sensor;protocol=fineoffset;model=temperature;id=212;temperature=20.2;time=2021-12-07;16:57:14;age=48
type=sensor;protocol=fineoffset;model=temperaturehumidity;id=167;temperature=20.2;humidity=37;time=2021-12-07;17:40:04;age=1077;type=sensor;protocol=fineoffset;model=temperaturehumidity;id=135;temperature=-11.2;humidity=69;time=2021-12-07;17:55:22;age=159;type=sensor;protocol=fineoffset;model=temperaturehumidity;id=199;temperature=-3.9;humidity=78;time=2021-12-07;17:57:55;age=6;type=sensor;protocol=fineoffset;model=temperature;id=212;temperature=20.8;time=2021-12-07;17:57:14;age=47
type=sensor;protocol=fineoffset;model=temperaturehumidity;id=167;temperature=19.8;humidity=37;time=2021-12-07;18:57:40;age=21;type=sensor;protocol=fineoffset;model=temperaturehumidity;id=135;temperature=-11.6;humidity=69;time=2021-12-07;18:57:47;age=14;type=sensor;protocol=fineoffset;model=temperaturehumidity;id=199;temperature=-4.2;humidity=77;time=2021-12-07;18:57:55;age=6;type=sensor;protocol=fineoffset;model=temperature;id=212;temperature=20.8;time=2021-12-07;18:57:14;age=47
type=sensor;protocol=fineoffset;model=temperaturehumidity;id=167;temperature=22.3;humidity=37;time=2021-12-07;19:55:16;age=165;type=sensor;protocol=fineoffset;model=temperaturehumidity;id=135;temperature=-11.7;humidity=69;time=2021-12-07;19:57:47;age=14;type=sensor;protocol=fineoffset;model=temperaturehumidity;id=199;temperature=-4.3;humidity=76;time=2021-12-07;19:57:55;age=6;type=sensor;protocol=fineoffset;model=temperature;id=212;temperature=21.1;time=2021-12-07;19:57:14;age=47
type=sensor;protocol=fineoffset;model=temperaturehumidity;id=167;temperature=22.1;humidity=36;time=2021-12-07;20:55:16;age=165;type=sensor;protocol=fineoffset;model=temperaturehumidity;id=135;temperature=-11.2;humidity=70;time=2021-12-07;20:57:47;age=14;type=sensor;protocol=fineoffset;model=temperaturehumidity;id=199;temperature=-4.2;humidity=76;time=2021-12-07;20:57:55;age=6;type=sensor;protocol=fineoffset;model=temperature;id=212;temperature=21.3;time=2021-12-07;20:57:14;age=47
type=sensor;protocol=fineoffset;model=temperaturehumidity;id=167;temperature=21.3;humidity=35;time=2021-12-07;21:56:52;age=69;type=sensor;protocol=fineoffset;model=temperaturehumidity;id=135;temperature=-10.7;humidity=71;time=2021-12-07;21:57:47;age=14;type=sensor;protocol=fineoffset;model=temperaturehumidity;id=199;temperature=-3.7;humidity=76;time=2021-12-07;21:57:55;age=6;type=sensor;protocol=fineoffset;model=temperature;id=212;temperature=21.0;time=2021-12-07;21:57:14;age=47
type=sensor;protocol=fineoffset;model=temperaturehumidity;id=167;temperature=20.8;humidity=37;time=2021-12-07;22:57:40;age=21;type=sensor;protocol=fineoffset;model=temperaturehumidity;id=135;temperature=-10.8;humidity=71;time=2021-12-07;22:57:47;age=14;type=sensor;protocol=fineoffset;model=temperaturehumidity;id=199;temperature=-3.4;humidity=76;time=2021-12-07;22:57:55;age=6;type=sensor;protocol=fineoffset;model=temperature;id=212;temperature=20.8;time=2021-12-07;22:57:14;age=47
type=sensor;protocol=fineoffset;model=temperaturehumidity;id=167;temperature=20.5;humidity=37;time=2021-12-07;23:57:40;age=21;type=sensor;protocol=fineoffset;model=temperaturehumidity;id=135;temperature=-11.0;humidity=70;time=2021-12-07;23:57:47;age=14;type=sensor;protocol=fineoffset;model=temperaturehumidity;id=199;temperature=-3.6;humidity=76;time=2021-12-07;23:57:55;age=6;type=sensor;protocol=fineoffset;model=temperature;id=212;temperature=20.6;time=2021-12-07;23:57:14;age=47
